696334591965
696334591972
696334591989
696334591996
696334592009
696334592016
696334592023
696334592030
696334592047
696334592054
696334592061
696334592078
696334592085
696334592092
696334592108
696334592115
696334592122
696334592139
696334592146
696334592153
696334592160
696334592177
696334592184
696334592191
696334592207
696334592214
696334592221
696334592238
696334592245
696334592252
696334592269
696334592276696334592283
696334592290
696334592306
696334592313
696334592320
696334592337
696334592344
696334592351
696334592368
696334592375
696334592382
696334592399
696334592405
696334592412
696334592429
696334592436
696334592443
696334592450
696334592467
696334592474
696334592481
696334592498
696334592504
696334592511
696334592528
696334592535
696334592542
696334592559
696334592566
696334592573
696334592580
696334592597
696334592603
696334592610
696334592627
696334592634
696334592641
696334592658
696334592665
696334592672
696334592689
696334592696
696334592702
696334592719
696334592726
696334592733
696334592740
696334592757
696334592764
696334592771696334592788
696334592795
696334592801
696334592818
696334592825
696334592832
696334592849
696334592856
696334592863
696334592870
696334592887
696334592894
696334592900
696334592917
696334592924
696334592931
696334592948
696334592955
696334592962
696334592979
696334592986
696334592993
696334593006
696334593013
696334593020
696334593037
696334593044
696334593051
696334593068
696334593075
696334593082
696334593099
696334593105
696334593112
696334593129
696334593136
696334593143
696334593150
696334593167
696334593174
696334593181
696334593198
696334593204
696334593211
696334593228
696334593235
696334593242
696334593259
696334593266
696334593273696334593280
696334593297
696334593303
696334593310
696334593327
696334593334
696334593341
696334593358
696334593365
696334593372
696334593389
696334593396
696334593402
696334593419
696334593426
696334593433
696334593440
696334593457
696334593464
696334593471
696334593488
696334593495
696334593501
696334593518
696334593525
696334593532
696334593549
696334593556
696334593563
696334593570
696334593587
696334593594
696334593600
696334593617
696334593624
696334593631
696334593648
696334593655
696334593662
696334593679
696334593686
696334593693
696334593709
696334593716
696334593723
696334593730
696334593747
696334593754
696334593761
696334593778696334593785
696334593792
696334593808
696334593815
696334593822
696334593839
696334593846
696334593853
696334593860
696334593877
696334593884
696334593891
696334593907
696334593914
696334593921
696334593938
696334593945
696334593952
696334593969
696334593976
696334593983
696334593990
696334594003
696334594010
696334594027
696334594034
696334594041
696334594058
696334594065
696334594072
696334594089
696334594096
696334594102
696334594119
696334594126
696334594133
696334594140
696334594157
696334594164
696334594171
696334594188
696334594195
696334594201
696334594218
696334594225
696334594232
696334594249
696334594256
696334594263
696334594270696334594287
696334594294
696334594300
696334594317
696334594324
696334594331
696334594348
696334594355
696334594362
696334594379
696334594386
696334594393
696334594409
696334594416
696334594423
696334594430
696334594447
696334594454
696334594461
696334594478
696334594485
696334594492
696334594508
696334594515
696334594522
696334594539
696334594546
696334594553
696334594560
696334594577
696334594584
696334594591
696334594607
696334594614
696334594621
696334594638
696334594645
696334594652
696334594669
696334594676
696334594683
696334594690
696334594706
696334594713
696334594720
696334594737
696334594744
696334594751
696334594768
696334594775696334594782
696334594799
696334594805
696334594812
696334594829
696334594836
696334594843
696334594850
696334594867
696334594874
696334594881
696334594898
696334594904
696334594911
696334594928
696334594935
696334594942
696334594959
696334594966
696334594973
696334594980
696334594997
696334595000
696334595017
696334595024
696334595031
696334595048
696334595055
696334595062
696334595079
696334595086
696334595093
696334595109
696334595116
696334595123
696334595130
696334595147
696334595154
696334595161
696334595178
696334595185
696334595192
696334595208
696334595215
696334595222
696334595239
696334595246
696334595253
696334595260
696334595277696334595284
696334595291
696334595307
696334595314
696334595321
696334595338
696334595345
696334595352
696334595369
696334595376
696334595383
696334595390
696334595406
696334595413
696334595420
696334595437
696334595444
696334595451
696334595468
696334595475
696334595482
696334595499
696334595505
696334595512
696334595529
696334595536
696334595543
696334595550
696334595567
696334595574
696334595581
696334595598
696334595604
696334595611
696334595628
696334595635
696334595642
696334595659
696334595666
696334595673
696334595680
696334595697
696334595703
696334595710
696334595727
696334595734
696334595741
696334595758
696334595765
696334595772696334595789
696334595796
696334595802
696334595819
696334595826
696334595833
696334595840
696334595857
696334595864
696334595871
696334595888
696334595895
696334595901
696334595918
696334595925
696334595932
696334595949
696334595956
696334595963
696334595970
696334595987
696334595994
696334596007
696334596014
696334596021
696334596038
696334596045
696334596052
696334596069
696334596076
696334596083
696334596090
696334596106
696334596113
696334596120
696334596137
696334596144
696334596151
696334596168
696334596175
696334596182
696334596199
696334596205
696334596212
696334596229
696334596236
696334596243
696334596250
696334596267
696334596274696334596281
696334596298
696334596304
696334596311
696334596328
696334596335
696334596342
696334596359
696334596366
696334596373
696334596380
696334596397
696334596403
696334596410
696334596427
696334596434
696334596441
696334596458
696334596465
696334596472
696334596489
696334596496
696334596502
696334596519
696334596526
696334596533
696334596540
696334596557
696334596564
696334596571
696334596588
696334596595
696334596601
696334596618
696334596625
696334596632
696334596649
696334596656
696334596663
696334596670
696334596687
696334596694
696334596700
696334596717
696334596724
696334596731
696334596748
696334596755
696334596762
696334596779696334596786
696334596793
696334596809
696334596816
696334596823
696334596830
696334596847
696334596854
696334596861
696334596878
696334596885
696334596892
696334596908
696334596915
696334596922
696334596939
696334596946
696334596953
696334596960
696334596977
696334596984
696334596991
696334597004
696334597011
696334597028
696334597035
696334597042
696334597059
696334597066
696334597073
696334597080
696334597097
696334597103
696334597110
696334597127
696334597134
696334597141
696334597158
696334597165
696334597172
696334597189
696334597196
696334597202
696334597219
696334597226
696334597233
696334597240
696334597257
696334597264
696334597271696334597288
696334597295
696334597301
696334597318
696334597325
696334597332
696334597349
696334597356
696334597363
696334597370
696334597387
696334597394
696334597400
696334597417
696334597424
696334597431
696334597448
696334597455
696334597462
696334597479
696334597486
696334597493
696334597509
696334597516
696334597523
696334597530
696334597547
696334597554
696334597561
696334597578
696334597585
696334597592
696334597608
696334597615
696334597622
696334597639
696334597646
696334597653
696334597660
696334597677
696334597684
696334597691
696334597707
696334597714
696334597721
696334597738
696334597745
696334597752
696334597769
696334597776696334597783
696334597790
696334597806
696334597813
696334597820
696334597837
696334597844
696334597851
696334597868
696334597875
696334597882
696334597899
696334597905
696334597912
696334597929
696334597936
696334597943
696334597950
696334597967
696334597974
696334597981
696334597998
696334598001
696334598018
696334598025
696334598032
696334598049
696334598056
696334598063
696334598070
696334598087
696334598094
696334598100
696334598117
696334598124
696334598131
696334598148
696334598155
696334598162
696334598179
696334598186
696334598193
696334598209
696334598216
696334598223
696334598230
696334598247
696334598254
696334598261
696334598278696334598285
696334598292
696334598308
696334598315
696334598322
696334598339
696334598346
696334598353
696334598360
696334598377
696334598384
696334598391
696334598407
696334598414
696334598421
696334598438
696334598445
696334598452
696334598469
696334598476
696334598483
696334598490
696334598506
696334598513
696334598520
696334598537
696334598544
696334598551
696334598568
696334598575
696334598582
696334598599
696334598605
696334598612
696334598629
696334598636
696334598643
696334598650
696334598667
696334598674
696334598681
696334598698
696334598704
696334598711
696334598728
696334598735
696334598742
696334598759
696334598766
696334598773696334598780
696334598797
696334598803
696334598810
696334598827
696334598834
696334598841
696334598858
696334598865
696334598872
696334598889
696334598896
696334598902
696334598919
696334598926
696334598933
696334598940
696334598957
696334598964
696334598971
696334598988
696334598995
696334599008
696334599015
696334599022
696334599039
696334599046
696334599053
696334599060
696334599077
696334599084
696334599091
696334599107
696334599114
696334599121
696334599138
696334599145
696334599152
696334599169
696334599176
696334599183
696334599190
696334599206
696334599213
696334599220
696334599237
696334599244
696334599251
696334599268
696334599275696334599282
696334599299
696334599305
696334599312
696334599329
696334599336
696334599343
696334599350
696334599367
696334599374
696334599381
696334599398
696334599404
696334599411
696334599428
696334599435
696334599442
696334599459
696334599466
696334599473
696334599480
696334599497
696334599503
696334599510
696334599527
696334599534
696334599541
696334599558
696334599565
696334599572
696334599589
696334599596
696334599602
696334599619
696334599626
696334599633
696334599640
696334599657
696334599664
696334599671
696334599688
696334599695
696334599701
696334599718
696334599725
696334599732
696334599749
696334599756
696334599763
696334599770696334599787
696334599794
696334599800
696334599817
696334599824
696334599831
696334599848
696334599855
696334599862
696334599879
696334599886
696334599893
696334599909
696334599916
696334599923
696334599930
696334599947
696334599954
696334599961
696334599978
696334599985
696334599992
696334600001
696334600018
696334600025
696334600032
696334600049
696334600056
696334600063
696334600070
696334600087
696334600094
696334600100
696334600117
696334600124
696334600131
696334600148
696334600155
696334600162
696334600179
696334600186
696334600193
696334600209
696334600216
696334600223
696334600230
696334600247
696334600254
696334600261
696334600278696334600285
696334600292
696334600308
696334600315
696334600322
696334600339
696334600346
696334600353
696334600360
696334600377
696334600384
696334600391
696334600407
696334600414
696334600421
696334600438
696334600445
696334600452
696334600469
696334600476
696334600483
696334600490
696334600506
696334600513
696334600520
696334600537
696334600544
696334600551
696334600568
696334600575
696334600582
696334600599
696334600605
696334600612
696334600629
696334600636
696334600643
696334600650
696334600667
696334600674
696334600681
696334600698
696334600704
696334600711
696334600728
696334600735
696334600742
696334600759
696334600766
696334600773696334600780
696334600797
696334600803
696334600810
696334600827
696334600834
696334600841
696334600858
696334600865
696334600872
696334600889
696334600896
696334600902
696334600919
696334600926
696334600933
696334600940
696334600957
696334600964
696334600971
696334600988
696334600995
696334601008
696334601015
696334601022
696334601039
696334601046
696334601053
696334601060
696334601077
696334601084
696334601091
696334601107
696334601114
696334601121
696334601138
696334601145
696334601152
696334601169
696334601176
696334601183
696334601190
696334601206
696334601213
696334601220
696334601237
696334601244
696334601251
696334601268
696334601275696334601282
696334601299
696334601305
696334601312
696334601329
696334601336
696334601343
696334601350
696334601367
696334601374
696334601381
696334601398
696334601404
696334601411
696334601428
696334601435
696334601442
696334601459
696334601466
696334601473
696334601480
696334601497
696334601503
696334601510
696334601527
696334601534
696334601541
696334601558
696334601565
696334601572
696334601589
696334601596
696334601602
696334601619
696334601626
696334601633
696334601640
696334601657
696334601664
696334601671
696334601688
696334601695
696334601701
696334601718
696334601725
696334601732
696334601749
696334601756
696334601763
696334601770696334601787
696334601794
696334601800
696334601817
696334601824
696334601831
696334601848
696334601855
696334601862
696334601879
696334601886
696334601893
696334601909
696334601916
696334601923
696334601930
696334601947
696334601954
696334601961
696334601978
696334601985
696334601992
696334602005
696334602012
696334602029
696334602036
696334602043
696334602050
696334602067
696334602074
696334602081
696334602098
696334602104
696334602111
696334602128
696334602135
696334602142
696334602159
696334602166
696334602173
696334602180
696334602197
696334602203
696334602210
696334602227
696334602234
696334602241
696334602258
696334602265
696334602272696334602289
696334602296
696334602302
696334602319
696334602326
696334602333
696334602340
696334602357
696334602364
696334602371
696334602388
696334602395
696334602401
696334602418
696334602425
696334602432
696334602449
696334602456
696334602463
696334602470
696334602487
696334602494
696334602500
696334602517
696334602524
696334602531
696334602548
696334602555
696334602562
696334602579
696334602586
696334602593
696334602609
696334602616
696334602623
696334602630
696334602647
696334602654
696334602661
696334602678
696334602685
696334602692
696334602708
696334602715
696334602722
696334602739
696334602746
696334602753
696334602760
696334602777696334602784
696334602791
696334602807
696334602814
696334602821
696334602838
696334602845
696334602852
696334602869
696334602876
696334602883
696334602890
696334602906
696334602913
696334602920
696334602937
696334602944
696334602951
696334602968
696334602975
696334602982
696334602999
696334603002
696334603019
696334603026
696334603033
696334603040
696334603057
696334603064
696334603071
696334603088
696334603095
696334603101
696334603118
696334603125
696334603132
696334603149
696334603156
696334603163
696334603170
696334603187
696334603194
696334603200
696334603217
696334603224
696334603231
696334603248
696334603255
696334603262
696334603279696334603286
696334603293
696334603309
696334603316
696334603323
696334603330
696334603347
696334603354
696334603361
696334603378
696334603385
696334603392
696334603408
696334603415
696334603422
696334603439
696334603446
696334603453
696334603460
696334603477
696334603484
696334603491
696334603507
696334603514
696334603521
696334603538
696334603545
696334603552
696334603569
696334603576
696334603583
696334603590
696334603606
696334603613
696334603620
696334603637
696334603644
696334603651
696334603668
696334603675
696334603682
696334603699
696334603705
696334603712
696334603729
696334603736
696334603743
696334603750
696334603767
696334603774696334603781
696334603798
696334603804
696334603811
696334603828
696334603835
696334603842
696334603859
696334603866
696334603873
696334603880
696334603897
696334603903
696334603910
696334603927
696334603934
696334603941
696334603958
696334603965
696334603972
696334603989
696334603996
696334604009
696334604016
696334604023
696334604030
696334604047
696334604054
696334604061
696334604078
696334604085
696334604092
696334604108
696334604115
696334604122
696334604139
696334604146
696334604153
696334604160
696334604177
696334604184
696334604191
696334604207
696334604214
696334604221
696334604238
696334604245
696334604252
696334604269
696334604276696334604283
696334604290
696334604306
696334604313
696334604320
696334604337
696334604344
696334604351
696334604368
696334604375
696334604382
696334604399
696334604405
696334604412
696334604429
696334604436
696334604443
696334604450
696334604467
696334604474
696334604481
696334604498
696334604504
696334604511
696334604528
696334604535
696334604542
696334604559
696334604566
696334604573
696334604580
696334604597
696334604603
696334604610
696334604627
696334604634
696334604641
696334604658
696334604665
696334604672
696334604689
696334604696
696334604702
696334604719
696334604726
696334604733
696334604740
696334604757
696334604764
696334604771696334604788
696334604795
696334604801
696334604818
696334604825
696334604832
696334604849
696334604856
696334604863
696334604870
696334604887
696334604894
696334604900
696334604917
696334604924
696334604931
696334604948
696334604955
696334604962
696334604979
696334604986
696334604993
696334605006
696334605013
696334605020
696334605037
696334605044
696334605051
696334605068
696334605075
696334605082
696334605099
696334605105
696334605112
696334605129
696334605136
696334605143
696334605150
696334605167
696334605174
696334605181
696334605198
696334605204
696334605211
696334605228
696334605235
696334605242
696334605259
696334605266
696334605273696334605280
696334605297
696334605303
696334605310
696334605327
696334605334
696334605341
696334605358
696334605365
696334605372
696334605389
696334605396
696334605402
696334605419
696334605426
696334605433
696334605440
696334605457
696334605464
696334605471
696334605488
696334605495
696334605501
696334605518
696334605525
696334605532
696334605549
696334605556
696334605563
696334605570
696334605587
696334605594
696334605600
696334605617
696334605624
696334605631
696334605648
696334605655
696334605662
696334605679
696334605686
696334605693
696334605709
696334605716
696334605723
696334605730
696334605747
696334605754
696334605761
696334605778696334605785
696334605792
696334605808
696334605815
696334605822
696334605839
696334605846
696334605853
696334605860
696334605877
696334605884
696334605891
696334605907
696334605914
696334605921
696334605938
696334605945
696334605952
696334605969
696334605976
696334605983
696334605990
696334606003
696334606010
696334606027
696334606034
696334606041
696334606058
696334606065
696334606072
696334606089
696334606096
696334606102
696334606119
696334606126
696334606133
696334606140
696334606157
696334606164
696334606171
696334606188
696334606195
696334606201
696334606218
696334606225
696334606232
696334606249
696334606256
696334606263
696334606270696334606287
696334606294
696334606300
696334606317
696334606324
696334606331
696334606348
696334606355
696334606362
696334606379
696334606386
696334606393
696334606409
696334606416
696334606423
696334606430
696334606447
696334606454
696334606461
696334606478
696334606485
696334606492
696334606508
696334606515
696334606522
696334606539
696334606546
696334606553
696334606560
696334606577
696334606584
696334606591
696334606607
696334606614
696334606621
696334606638
696334606645
696334606652
696334606669
696334606676
696334606683
696334606690
696334606706
696334606713
696334606720
696334606737
696334606744
696334606751
696334606768
696334606775696334606782
696334606799
696334606805
696334606812
696334606829
696334606836
696334606843
696334606850
696334606867
696334606874
696334606881
696334606898
696334606904
696334606911
696334606928
696334606935
696334606942
696334606959
696334606966
696334606973
696334606980
696334606997
696334607000
696334607017
696334607024
696334607031
696334607048
696334607055
696334607062
696334607079
696334607086
696334607093
696334607109
696334607116
696334607123
696334607130
696334607147
696334607154
696334607161
696334607178
696334607185
696334607192
696334607208
696334607215
696334607222
696334607239
696334607246
696334607253
696334607260
696334607277696334607284
696334607291
696334607307
696334607314
696334607321
696334607338
696334607345
696334607352
696334607369
696334607376
696334607383
696334607390
696334607406
696334607413
696334607420
696334607437
696334607444
696334607451
696334607468
696334607475
696334607482
696334607499
696334607505
696334607512
696334607529
696334607536
696334607543
696334607550
696334607567
696334607574
696334607581
696334607598
696334607604
696334607611
696334607628
696334607635
696334607642
696334607659
696334607666
696334607673
696334607680
696334607697
696334607703
696334607710
696334607727
696334607734
696334607741
696334607758
696334607765
696334607772696334607789
696334607796
696334607802
696334607819
696334607826
696334607833
696334607840
696334607857
696334607864
696334607871
696334607888
696334607895
696334607901
696334607918
696334607925
696334607932
696334607949
696334607956
696334607963
696334607970
696334607987
696334607994
696334608007
696334608014
696334608021
696334608038
696334608045
696334608052
696334608069
696334608076
696334608083
696334608090
696334608106
696334608113
696334608120
696334608137
696334608144
696334608151
696334608168
696334608175
696334608182
696334608199
696334608205
696334608212
696334608229
696334608236
696334608243
696334608250
696334608267
696334608274696334608281
696334608298
696334608304
696334608311
696334608328
696334608335
696334608342
696334608359
696334608366
696334608373
696334608380
696334608397
696334608403
696334608410
696334608427
696334608434
696334608441
696334608458
696334608465
696334608472
696334608489
696334608496
696334608502
696334608519
696334608526
696334608533
696334608540
696334608557
696334608564
696334608571
696334608588
696334608595
696334608601
696334608618
696334608625
696334608632
696334608649
696334608656
696334608663
696334608670
696334608687
696334608694
696334608700
696334608717
696334608724
696334608731
696334608748
696334608755
696334608762
696334608779696334608786
696334608793
696334608809
696334608816
696334608823
696334608830
696334608847
696334608854
696334608861
696334608878
696334608885
696334608892
696334608908
696334608915
696334608922
696334608939
696334608946
696334608953
696334608960
696334608977
696334608984
696334608991
696334609004
696334609011
696334609028
696334609035
696334609042
696334609059
696334609066
696334609073
696334609080
696334609097
696334609103
696334609110
696334609127
696334609134
696334609141
696334609158
696334609165
696334609172
696334609189
696334609196
696334609202
696334609219
696334609226
696334609233
696334609240
696334609257
696334609264
696334609271696334609288
696334609295
696334609301
696334609318
696334609325
696334609332
696334609349
696334609356
696334609363
696334609370
696334609387
696334609394
696334609400
696334609417
696334609424
696334609431
696334609448
696334609455
696334609462
696334609479
696334609486
696334609493
696334609509
696334609516
696334609523
696334609530
696334609547
696334609554
696334609561
696334609578
696334609585
696334609592
696334609608
696334609615
696334609622
696334609639
696334609646
696334609653
696334609660
696334609677
696334609684
696334609691
696334609707
696334609714
696334609721
696334609738
696334609745
696334609752
696334609769
696334609776696334609783
696334609790
696334609806
696334609813
696334609820
696334609837
696334609844
696334609851
696334609868
696334609875
696334609882
696334609899
696334609905
696334609912
696334609929
696334609936
696334609943
696334609950
696334609967
696334609974
696334609981
696334609998
696334610000
696334610017
696334610024
696334610031
696334610048
696334610055
696334610062
696334610079
696334610086
696334610093
696334610109
696334610116
696334610123
696334610130
696334610147
696334610154
696334610161
696334610178
696334610185
696334610192
696334610208
696334610215
696334610222
696334610239
696334610246
696334610253
696334610260
696334610277696334610284
696334610291
696334610307
696334610314
696334610321
696334610338
696334610345
696334610352
696334610369
696334610376
696334610383
696334610390
696334610406
696334610413
696334610420
696334610437
696334610444
696334610451
696334610468
696334610475
696334610482
696334610499
696334610505
696334610512
696334610529
696334610536
696334610543
696334610550
696334610567
696334610574
696334610581
696334610598
696334610604
696334610611
696334610628
696334610635
696334610642
696334610659
696334610666
696334610673
696334610680
696334610697
696334610703
696334610710
696334610727
696334610734
696334610741
696334610758
696334610765
696334610772696334610789
696334610796
696334610802
696334610819
696334610826
696334610833
696334610840
696334610857
696334610864
696334610871
696334610888
696334610895
696334610901
696334610918
696334610925
696334610932
696334610949
696334610956
696334610963
696334610970
696334610987
696334610994
696334611007
696334611014
696334611021
696334611038
696334611045
696334611052
696334611069
696334611076
696334611083
696334611090
696334611106
696334611113
696334611120
696334611137
696334611144
696334611151
696334611168
696334611175
696334611182
696334611199
696334611205
696334611212
696334611229
696334611236
696334611243
696334611250
696334611267
696334611274696334611281
696334611298
696334611304
696334611311
696334611328
696334611335
696334611342
696334611359
696334611366
696334611373
696334611380
696334611397
696334611403
696334611410
696334611427
696334611434
696334611441
696334611458
696334611465
696334611472
696334611489
696334611496
696334611502
696334611519
696334611526
696334611533
696334611540
696334611557
696334611564
696334611571
696334611588
696334611595
696334611601
696334611618
696334611625
696334611632
696334611649
696334611656
696334611663
696334611670
696334611687
696334611694
696334611700
696334611717
696334611724
696334611731
696334611748
696334611755
696334611762
696334611779696334611786
696334611793
696334611809
696334611816
696334611823
696334611830
696334611847
696334611854
696334611861
696334611878
696334611885
696334611892
696334611908
696334611915
696334611922
696334611939
696334611946
696334611953
696334611960
696334611977
696334611984
696334611991
696334612004
696334612011
696334612028
696334612035
696334612042
696334612059
696334612066
696334612073
696334612080
696334612097
696334612103
696334612110
696334612127
696334612134
696334612141
696334612158
696334612165
696334612172
696334612189
696334612196
696334612202
696334612219
696334612226
696334612233
696334612240
696334612257
696334612264
696334612271696334612288
696334612295
696334612301
696334612318
696334612325
696334612332
696334612349
696334612356
696334612363
696334612370
696334612387
696334612394
696334612400
696334612417
696334612424
696334612431
696334612448
696334612455
696334612462
696334612479
696334612486
696334612493
696334612509
696334612516
696334612523
696334612530
696334612547
696334612554
696334612561
696334612578
696334612585
696334612592
696334612608
696334612615
696334612622
696334612639
696334612646
696334612653
696334612660
696334612677
696334612684
696334612691
696334612707
696334612714
696334612721
696334612738
696334612745
696334612752
696334612769
696334612776696334612783
696334612790
696334612806
696334612813
696334612820
696334612837
696334612844
696334612851
696334612868
696334612875
696334612882
696334612899
696334612905
696334612912
696334612929
696334612936
696334612943
696334612950
696334612967
696334612974
696334612981
696334612998
696334613001
696334613018
696334613025
696334613032
696334613049
696334613056
696334613063
696334613070
696334613087
696334613094
696334613100
696334613117
696334613124
696334613131
696334613148
696334613155
696334613162
696334613179
696334613186
696334613193
696334613209
696334613216
696334613223
696334613230
696334613247
696334613254
696334613261
696334613278696334613285
696334613292
696334613308
696334613315
696334613322
696334613339
696334613346
696334613353
696334613360
696334613377
696334613384
696334613391
696334613407
696334613414
696334613421
696334613438
696334613445
696334613452
696334613469
696334613476
696334613483
696334613490
696334613506
696334613513
696334613520
696334613537
696334613544
696334613551
696334613568
696334613575
696334613582
696334613599
696334613605
696334613612
696334613629
696334613636
696334613643
696334613650
696334613667
696334613674
696334613681
696334613698
696334613704
696334613711
696334613728
696334613735
696334613742
696334613759
696334613766
696334613773696334613780
696334613797
696334613803
696334613810
696334613827
696334613834
696334613841
696334613858
696334613865
696334613872
696334613889
696334613896
696334613902
696334613919
696334613926
696334613933
696334613940
696334613957
696334613964
696334613971
696334613988
696334613995
696334614008
696334614015
696334614022
696334614039
696334614046
696334614053
696334614060
696334614077
696334614084
696334614091
696334614107
696334614114
696334614121
696334614138
696334614145
696334614152
696334614169
696334614176
696334614183
696334614190
696334614206
696334614213
696334614220
696334614237
696334614244
696334614251
696334614268
696334614275696334614282
696334614299
696334614305
696334614312
696334614329
696334614336
696334614343
696334614350
696334614367
696334614374
696334614381
696334614398
696334614404
696334614411
696334614428
696334614435
696334614442
696334614459
696334614466
696334614473
696334614480
696334614497
696334614503
696334614510
696334614527
696334614534
696334614541
696334614558
696334614565
696334614572
696334614589
696334614596
696334614602
696334614619
696334614626
696334614633
696334614640
696334614657
696334614664
696334614671
696334614688
696334614695
696334614701
696334614718
696334614725
696334614732
696334614749
696334614756
696334614763
696334614770696334614787
696334614794
696334614800
696334614817
696334614824
696334614831
696334614848
696334614855
696334614862
696334614879
696334614886
696334614893
696334614909
696334614916
696334614923
696334614930
696334614947
696334614954
696334614961
696334614978
696334614985
696334614992
696334615005
696334615012
696334615029
696334615036
696334615043
696334615050
696334615067
696334615074
696334615081
696334615098
696334615104
696334615111
696334615128
696334615135
696334615142
696334615159
696334615166
696334615173
696334615180
696334615197
696334615203
696334615210
696334615227
696334615234
696334615241
696334615258
696334615265
696334615272696334615289
696334615296
696334615302
696334615319
696334615326
696334615333
696334615340
696334615357
696334615364
696334615371
696334615388
696334615395
696334615401
696334615418
696334615425
696334615432
696334615449
696334615456
696334615463
696334615470
696334615487
696334615494
696334615500
696334615517
696334615524
696334615531
696334615548
696334615555
696334615562
696334615579
696334615586
696334615593
696334615609
696334615616
696334615623
696334615630
696334615647
696334615654
696334615661
696334615678
696334615685
696334615692
696334615708
696334615715
696334615722
696334615739
696334615746
696334615753
696334615760
696334615777696334615784
696334615791
696334615807
696334615814
696334615821
696334615838
696334615845
696334615852
696334615869
696334615876
696334615883
696334615890
696334615906
696334615913
696334615920
696334615937
696334615944
696334615951
696334615968
696334615975
696334615982
696334615999
696334616002
696334616019
696334616026
696334616033
696334616040
696334616057
696334616064
696334616071
696334616088
696334616095
696334616101
696334616118
696334616125
696334616132
696334616149
696334616156
696334616163
696334616170
696334616187
696334616194
696334616200
696334616217
696334616224
696334616231
696334616248
696334616255
696334616262
696334616279696334616286
696334616293
696334616309
696334616316
696334616323
696334616330
696334616347
696334616354
696334616361
696334616378
696334616385
696334616392
696334616408
696334616415
696334616422
696334616439
696334616446
696334616453
696334616460
696334616477
696334616484
696334616491
696334616507
696334616514
696334616521
696334616538
696334616545
696334616552
696334616569
696334616576
696334616583
696334616590
696334616606
696334616613
696334616620
696334616637
696334616644
696334616651
696334616668
696334616675
696334616682
696334616699
696334616705
696334616712
696334616729
696334616736
696334616743
696334616750
696334616767
696334616774696334616781
696334616798
696334616804
696334616811
696334616828
696334616835
696334616842
696334616859
696334616866
696334616873
696334616880
696334616897
696334616903
696334616910
696334616927
696334616934
696334616941
696334616958
696334616965
696334616972
696334616989
696334616996
696334617009
696334617016
696334617023
696334617030
696334617047
696334617054
696334617061
696334617078
696334617085
696334617092
696334617108
696334617115
696334617122
696334617139
696334617146
696334617153
696334617160
696334617177
696334617184
696334617191
696334617207
696334617214
696334617221
696334617238
696334617245
696334617252
696334617269
696334617276696334617283
696334617290
696334617306
696334617313
696334617320
696334617337
696334617344
696334617351
696334617368
696334617375
696334617382
696334617399
696334617405
696334617412
696334617429
696334617436
696334617443
696334617450
696334617467
696334617474
696334617481
696334617498
696334617504
696334617511
696334617528
696334617535
696334617542
696334617559
696334617566
696334617573
696334617580
696334617597
696334617603
696334617610
696334617627
696334617634
696334617641
696334617658
696334617665
696334617672
696334617689
696334617696
696334617702
696334617719
696334617726
696334617733
696334617740
696334617757
696334617764
696334617771696334617788
696334617795
696334617801
696334617818
696334617825
696334617832
696334617849
696334617856
696334617863
696334617870
696334617887
696334617894
696334617900
696334617917
696334617924
696334617931
696334617948
696334617955
696334617962
696334617979
696334617986
696334617993
696334618006
696334618013
696334618020
696334618037
696334618044
696334618051
696334618068
696334618075
696334618082
696334618099
696334618105
696334618112
696334618129
696334618136
696334618143
696334618150
696334618167
696334618174
696334618181
696334618198
696334618204
696334618211
696334618228
696334618235
696334618242
696334618259
696334618266
696334618273696334618280
696334618297
696334618303
696334618310
696334618327
696334618334
696334618341
696334618358
696334618365
696334618372
696334618389
696334618396
696334618402
696334618419
696334618426
696334618433
696334618440
696334618457
696334618464
696334618471
696334618488
696334618495
696334618501
696334618518
696334618525
696334618532
696334618549
696334618556
696334618563
696334618570
696334618587
696334618594
696334618600
696334618617
696334618624
696334618631
696334618648
696334618655
696334618662
696334618679
696334618686
696334618693
696334618709
696334618716
696334618723
696334618730
696334618747
696334618754
696334618761
696334618778696334618785
696334618792
696334618808
696334618815
696334618822
696334618839
696334618846
696334618853
696334618860
696334618877
696334618884
696334618891
696334618907
696334618914
696334618921
696334618938
696334618945
696334618952
696334618969
696334618976
696334618983
696334618990
696334619003
696334619010
696334619027
696334619034
696334619041
696334619058
696334619065
696334619072
696334619089
696334619096
696334619102
696334619119
696334619126
696334619133
696334619140
696334619157
696334619164
696334619171
696334619188
696334619195
696334619201
696334619218
696334619225
696334619232
696334619249
696334619256
696334619263
696334619270696334619287
696334619294
696334619300
696334619317
696334619324
696334619331
696334619348
696334619355
696334619362
696334619379
696334619386
696334619393
696334619409
696334619416
696334619423
696334619430
696334619447
696334619454
696334619461
696334619478
696334619485
696334619492
696334619508
696334619515
696334619522
696334619539
696334619546
696334619553
696334619560
696334619577
696334619584
696334619591
696334619607
696334619614
696334619621
696334619638
696334619645
696334619652
696334619669
696334619676
696334619683
696334619690
696334619706
696334619713
696334619720
696334619737
696334619744
696334619751
696334619768
696334619775696334619782
696334619799
696334619805
696334619812
696334619829
696334619836
696334619843
696334619850
696334619867
696334619874
696334619881
696334619898
696334619904
696334619911
696334619928
696334619935
696334619942
696334619959
696334619966
696334619973
696334619980
696334619997
696334620009
696334620016
696334620023
696334620030
696334620047
696334620054
696334620061
696334620078
696334620085
696334620092
696334620108
696334620115
696334620122
696334620139
696334620146
696334620153
696334620160
696334620177
696334620184
696334620191
696334620207
696334620214
696334620221
696334620238
696334620245
696334620252
696334620269
696334620276696334620283
696334620290
696334620306
696334620313
696334620320
696334620337
696334620344
696334620351
696334620368
696334620375
696334620382
696334620399
696334620405
696334620412
696334620429
696334620436
696334620443
696334620450
696334620467
696334620474
696334620481
696334620498
696334620504
696334620511
696334620528
696334620535
696334620542
696334620559
696334620566
696334620573
696334620580
696334620597
696334620603
696334620610
696334620627
696334620634
696334620641
696334620658
696334620665
696334620672
696334620689
696334620696
696334620702
696334620719
696334620726
696334620733
696334620740
696334620757
696334620764
696334620771696334620788
696334620795
696334620801
696334620818
696334620825
696334620832
696334620849
696334620856
696334620863
696334620870
696334620887
696334620894
696334620900
696334620917
696334620924
696334620931
696334620948
696334620955
696334620962
696334620979
696334620986
696334620993
696334621006
696334621013
696334621020
696334621037
696334621044
696334621051
696334621068
696334621075
696334621082
696334621099
696334621105
696334621112
696334621129
696334621136
696334621143
696334621150
696334621167
696334621174
696334621181
696334621198
696334621204
696334621211
696334621228
696334621235
696334621242
696334621259
696334621266
696334621273696334621280
696334621297
696334621303
696334621310
696334621327
696334621334
696334621341
696334621358
696334621365
696334621372
696334621389
696334621396
696334621402
696334621419
696334621426
696334621433
696334621440
696334621457
696334621464
696334621471
696334621488
696334621495
696334621501
696334621518
696334621525
696334621532
696334621549
696334621556
696334621563
696334621570
696334621587
696334621594
696334621600
696334621617
696334621624
696334621631
696334621648
696334621655
696334621662
696334621679
696334621686
696334621693
696334621709
696334621716
696334621723
696334621730
696334621747
696334621754
696334621761
696334621778696334621785
696334621792
696334621808
696334621815
696334621822
696334621839
696334621846
696334621853
696334621860
696334621877
696334621884
696334621891
696334621907
696334621914
696334621921
696334621938
696334621945
696334621952
696334621969
696334621976
696334621983
696334621990
696334622003
696334622010
696334622027
696334622034
696334622041
696334622058
696334622065
696334622072
696334622089
696334622096
696334622102
696334622119
696334622126
696334622133
696334622140
696334622157
696334622164
696334622171
696334622188
696334622195
696334622201
696334622218
696334622225
696334622232
696334622249
696334622256
696334622263
696334622270696334622287
696334622294
696334622300
696334622317
696334622324
696334622331
696334622348
696334622355
696334622362
696334622379
696334622386
696334622393
696334622409
696334622416
696334622423
696334622430
696334622447
696334622454
696334622461
696334622478
696334622485
696334622492
696334622508
696334622515
696334622522
696334622539
696334622546
696334622553
696334622560
696334622577
696334622584
696334622591
696334622607
696334622614
696334622621
696334622638
696334622645
696334622652
696334622669
696334622676
696334622683
696334622690
696334622706
696334622713
696334622720
696334622737
696334622744
696334622751
696334622768
696334622775696334622782
696334622799
696334622805
696334622812
696334622829
696334622836
696334622843
696334622850
696334622867
696334622874
696334622881
696334622898
696334622904
696334622911
696334622928
696334622935
696334622942
696334622959
696334622966
696334622973
696334622980
696334622997
696334623000
696334623017
696334623024
696334623031
696334623048
696334623055
696334623062
696334623079
696334623086
696334623093
696334623109
696334623116
696334623123
696334623130
696334623147
696334623154
696334623161
696334623178
696334623185
696334623192
696334623208
696334623215
696334623222
696334623239
696334623246
696334623253
696334623260
696334623277696334623284
696334623291
696334623307
696334623314
696334623321
696334623338
696334623345
696334623352
696334623369
696334623376
696334623383
696334623390
696334623406
696334623413
696334623420
696334623437
696334623444
696334623451
696334623468
696334623475
696334623482
696334623499
696334623505
696334623512
696334623529
696334623536
696334623543
696334623550
696334623567
696334623574
696334623581
696334623598
696334623604
696334623611
696334623628
696334623635
696334623642
696334623659
696334623666
696334623673
696334623680
696334623697
696334623703
696334623710
696334623727
696334623734
696334623741
696334623758
696334623765
696334623772696334623789
696334623796
696334623802
696334623819
696334623826
696334623833
696334623840
696334623857
696334623864
696334623871
696334623888
696334623895
696334623901
696334623918
696334623925
696334623932
696334623949
696334623956
696334623963
696334623970
696334623987
696334623994
696334624007
696334624014
696334624021
696334624038
696334624045
696334624052
696334624069
696334624076
696334624083
696334624090
696334624106
696334624113
696334624120
696334624137
696334624144
696334624151
696334624168
696334624175
696334624182
696334624199
696334624205
696334624212
696334624229
696334624236
696334624243
696334624250
696334624267
696334624274696334624281
696334624298
696334624304
696334624311
696334624328
696334624335
696334624342
696334624359
696334624366
696334624373
696334624380
696334624397
696334624403
696334624410
696334624427
696334624434
696334624441
696334624458
696334624465
696334624472
696334624489
696334624496
696334624502
696334624519
696334624526
696334624533
696334624540
696334624557
696334624564
696334624571
696334624588
696334624595
696334624601
696334624618
696334624625
696334624632
696334624649
696334624656
696334624663
696334624670
696334624687
696334624694
696334624700
696334624717
696334624724
696334624731
696334624748
696334624755
696334624762
696334624779696334624786
696334624793
696334624809
696334624816
696334624823
696334624830
696334624847
696334624854
696334624861
696334624878
696334624885
696334624892
696334624908
696334624915
696334624922
696334624939
696334624946
696334624953
696334624960
696334624977
696334624984
696334624991
696334625004
696334625011
696334625028
696334625035
696334625042
696334625059
696334625066
696334625073
696334625080
696334625097
696334625103
696334625110
696334625127
696334625134
696334625141
696334625158
696334625165
696334625172
696334625189
696334625196
696334625202
696334625219
696334625226
696334625233
696334625240
696334625257
696334625264
696334625271696334625288
696334625295
696334625301
696334625318
696334625325
696334625332
696334625349
696334625356
696334625363
696334625370
696334625387
696334625394
696334625400
696334625417
696334625424
696334625431
696334625448
696334625455
696334625462
696334625479
696334625486
696334625493
696334625509
696334625516
696334625523
696334625530
696334625547
696334625554
696334625561
696334625578
696334625585
696334625592
696334625608
696334625615
696334625622
696334625639
696334625646
696334625653
696334625660
696334625677
696334625684
696334625691
696334625707
696334625714
696334625721
696334625738
696334625745
696334625752
696334625769
696334625776696334625783
696334625790
696334625806
696334625813
696334625820
696334625837
696334625844
696334625851
696334625868
696334625875
696334625882
696334625899
696334625905
696334625912
696334625929
696334625936
696334625943
696334625950
696334625967
696334625974
696334625981
696334625998
696334626001
696334626018
696334626025
696334626032
696334626049
696334626056
696334626063
696334626070
696334626087
696334626094
696334626100
696334626117
696334626124
696334626131
696334626148
696334626155
696334626162
696334626179
696334626186
696334626193
696334626209
696334626216
696334626223
696334626230
696334626247
696334626254
696334626261
696334626278696334626285
696334626292
696334626308
696334626315
696334626322
696334626339
696334626346
696334626353
696334626360
696334626377
696334626384
696334626391
696334626407
696334626414
696334626421
696334626438
696334626445
696334626452
696334626469
696334626476
696334626483
696334626490
696334626506
696334626513
696334626520
696334626537
696334626544
696334626551
696334626568
696334626575
696334626582
696334626599
696334626605
696334626612
696334626629
696334626636
696334626643
696334626650
696334626667
696334626674
696334626681
696334626698
696334626704
696334626711
696334626728
696334626735
696334626742
696334626759
696334626766
696334626773696334626780
696334626797
696334626803
696334626810
696334626827
696334626834
696334626841
696334626858
696334626865
696334626872
696334626889
696334626896
696334626902
696334626919
696334626926
696334626933
696334626940
696334626957
696334626964
696334626971
696334626988
696334626995
696334627008
696334627015
696334627022
696334627039
696334627046
696334627053
696334627060
696334627077
696334627084
696334627091
696334627107
696334627114
696334627121
696334627138
696334627145
696334627152
696334627169
696334627176
696334627183
696334627190
696334627206
696334627213
696334627220
696334627237
696334627244
696334627251
696334627268
696334627275696334627282
696334627299
696334627305
696334627312
696334627329
696334627336
696334627343
696334627350
696334627367
696334627374
696334627381
696334627398
696334627404
696334627411
696334627428
696334627435
696334627442
696334627459
696334627466
696334627473
696334627480
696334627497
696334627503
696334627510
696334627527
696334627534
696334627541
696334627558
696334627565
696334627572
696334627589
696334627596
696334627602
696334627619
696334627626
696334627633
696334627640
696334627657
696334627664
696334627671
696334627688
696334627695
696334627701
696334627718
696334627725
696334627732
696334627749
696334627756
696334627763
696334627770696334627787
696334627794
696334627800
696334627817
696334627824
696334627831
696334627848
696334627855
696334627862
696334627879
696334627886
696334627893
696334627909
696334627916
696334627923
696334627930
696334627947
696334627954
696334627961
696334627978
696334627985
696334627992
696334628005
696334628012
696334628029
696334628036
696334628043
696334628050
696334628067
696334628074
696334628081
696334628098
696334628104
696334628111
696334628128
696334628135
696334628142
696334628159
696334628166
696334628173
696334628180
696334628197
696334628203
696334628210
696334628227
696334628234
696334628241
696334628258
696334628265
696334628272696334628289
696334628296
696334628302
696334628319
696334628326
696334628333
696334628340
696334628357
696334628364
696334628371
696334628388
696334628395
696334628401
696334628418
696334628425
696334628432
696334628449
696334628456
696334628463
696334628470
696334628487
696334628494
696334628500
696334628517
696334628524
696334628531
696334628548
696334628555
696334628562
696334628579
696334628586
696334628593
696334628609
696334628616
696334628623
696334628630
696334628647
696334628654
696334628661
696334628678
696334628685
696334628692
696334628708
696334628715
696334628722
696334628739
696334628746
696334628753
696334628760
696334628777696334628784
696334628791
696334628807
696334628814
696334628821
696334628838
696334628845
696334628852
696334628869
696334628876
696334628883
696334628890
696334628906
696334628913
696334628920
696334628937
696334628944
696334628951
696334628968
696334628975
696334628982
696334628999
696334629002
696334629019
696334629026
696334629033
696334629040
696334629057
696334629064
696334629071
696334629088
696334629095
696334629101
696334629118
696334629125
696334629132
696334629149
696334629156
696334629163
696334629170
696334629187
696334629194
696334629200
696334629217
696334629224
696334629231
696334629248
696334629255
696334629262
696334629279696334629286
696334629293
696334629309
696334629316
696334629323
696334629330
696334629347
696334629354
696334629361
696334629378
696334629385
696334629392
696334629408
696334629415
696334629422
696334629439
696334629446
696334629453
696334629460
696334629477
696334629484
696334629491
696334629507
696334629514
696334629521
696334629538
696334629545
696334629552
696334629569
696334629576
696334629583
696334629590
696334629606
696334629613
696334629620
696334629637
696334629644
696334629651
696334629668
696334629675
696334629682
696334629699
696334629705
696334629712
696334629729
696334629736
696334629743
696334629750
696334629767
696334629774
696306377733
696306377740
696306377757
696306377764
696306377771
696306377788
696306377795
696306377801
696306377818
696306377825
696306377832
696306377849
696306377856
696306377863
696306377870
696306377887
696306377894
696306377900
696306377917
696306377924
696306377931
696306377948
696306377955
696306377962
696306377979
696306377986
696306377993
696306378006
696306378013
696306378020
696306378037
696306378044
696306378051
696306378068
696306378075
696306378082
696306378099
696306378105
696306378112
696306378129
696306378136
696306378143
696306378150
696306378167
696306378174
696306378181
696306378198
696306378204
696306378211
696306378228696306378235
696306378242
696306378259
696306378266
696306378273
696306378280
696306378297
696306378303
696306378310
696306378327
696306378334
696306378341
696306378358
696306378365
696306378372
696306378389
696306378396
696306378402
696306378419
696306378426
696306378433
696306378440
696306378457
696306378464
696306378471
696306378488
696306378495
696306378501
696306378518
696306378525
696306378532
696306378549
696306378556
696306378563
696306378570
696306378587
696306378594
696306378600
696306378617
696306378624
696306378631
696306378648
696306378655
696306378662
696306378679
696306378686
696306378693
696306378709
696306378716
696306378723696306378730
696306378747
696306378754
696306378761
696306378778
696306378785
696306378792
696306378808
696306378815
696306378822
696306378839
696306378846
696306378853
696306378860
696306378877
696306378884
696306378891
696306378907
696306378914
696306378921
696306378938
696306378945
696306378952
696306378969
696306378976
696306378983
696306378990
696306379003
696306379010
696306379027
696306379034
696306379041
696306379058
696306379065
696306379072
696306379089
696306379096
696306379102
696306379119
696306379126
696306379133
696306379140
696306379157
696306379164
696306379171
696306379188
696306379195
696306379201
696306379218
696306379225696306379232
696306379249
696306379256
696306379263
696306379270
696306379287
696306379294
696306379300
696306379317
696306379324
696306379331
696306379348
696306379355
696306379362
696306379379
696306379386
696306379393
696306379409
696306379416
696306379423
696306379430
696306379447
696306379454
696306379461
696306379478
696306379485
696306379492
696306379508
696306379515
696306379522
696306379539
696306379546
696306379553
696306379560
696306379577
696306379584
696306379591
696306379607
696306379614
696306379621
696306379638
696306379645
696306379652
696306379669
696306379676
696306379683
696306379690
696306379706
696306379713
696306379720696306379737
696306379744
696306379751
696306379768
696306379775
696306379782
696306379799
696306379805
696306379812
696306379829
696306379836
696306379843
696306379850
696306379867
696306379874
696306379881
696306379898
696306379904
696306379911
696306379928
696306379935
696306379942
696306379959
696306379966
696306379973
696306379980
696306379997
696306380009
696306380016
696306380023
696306380030
696306380047
696306380054
696306380061
696306380078
696306380085
696306380092
696306380108
696306380115
696306380122
696306380139
696306380146
696306380153
696306380160
696306380177
696306380184
696306380191
696306380207
696306380214
696306380221696306380238
696306380245
696306380252
696306380269
696306380276
696306380283
696306380290
696306380306
696306380313
696306380320
696306380337
696306380344
696306380351
696306380368
696306380375
696306380382
696306380399
696306380405
696306380412
696306380429
696306380436
696306380443
696306380450
696306380467
696306380474
696306380481
696306380498
696306380504
696306380511
696306380528
696306380535
696306380542
696306380559
696306380566
696306380573
696306380580
696306380597
696306380603
696306380610
696306380627
696306380634
696306380641
696306380658
696306380665
696306380672
696306380689
696306380696
696306380702
696306380719
696306380726696306380733
696306380740
696306380757
696306380764
696306380771
696306380788
696306380795
696306380801
696306380818
696306380825
696306380832
696306380849
696306380856
696306380863
696306380870
696306380887
696306380894
696306380900
696306380917
696306380924
696306380931
696306380948
696306380955
696306380962
696306380979
696306380986
696306380993
696306381006
696306381013
696306381020
696306381037
696306381044
696306381051
696306381068
696306381075
696306381082
696306381099
696306381105
696306381112
696306381129
696306381136
696306381143
696306381150
696306381167
696306381174
696306381181
696306381198
696306381204
696306381211
696306381228696306381235
696306381242
696306381259
696306381266
696306381273
696306381280
696306381297
696306381303
696306381310
696306381327
696306381334
696306381341
696306381358
696306381365
696306381372
696306381389
696306381396
696306381402
696306381419
696306381426
696306381433
696306381440
696306381457
696306381464
696306381471
696306381488
696306381495
696306381501
696306381518
696306381525
696306381532
696306381549
696306381556
696306381563
696306381570
696306381587
696306381594
696306381600
696306381617
696306381624
696306381631
696306381648
696306381655
696306381662
696306381679
696306381686
696306381693
696306381709
696306381716
696306381723696306381730
696306381747
696306381754
696306381761
696306381778
696306381785
696306381792
696306381808
696306381815
696306381822
696306381839
696306381846
696306381853
696306381860
696306381877
696306381884
696306381891
696306381907
696306381914
696306381921
696306381938
696306381945
696306381952
696306381969
696306381976
696306381983
696306381990
696306382003
696306382010
696306382027
696306382034
696306382041
696306382058
696306382065
696306382072
696306382089
696306382096
696306382102
696306382119
696306382126
696306382133
696306382140
696306382157
696306382164
696306382171
696306382188
696306382195
696306382201
696306382218
696306382225696306382232
696306382249
696306382256
696306382263
696306382270
696306382287
696306382294
696306382300
696306382317
696306382324
696306382331
696306382348
696306382355
696306382362
696306382379
696306382386
696306382393
696306382409
696306382416
696306382423
696306382430
696306382447
696306382454
696306382461
696306382478
696306382485
696306382492
696306382508
696306382515
696306382522
696306382539
696306382546
696306382553
696306382560
696306382577
696306382584
696306382591
696306382607
696306382614
696306382621
696306382638
696306382645
696306382652
696306382669
696306382676
696306382683
696306382690
696306382706
696306382713
696306382720696306382737
696306382744
696306382751
696306382768
696306382775
696306382782
696306382799
696306382805
696306382812
696306382829
696306382836
696306382843
696306382850
696306382867
696306382874
696306382881
696306382898
696306382904
696306382911
696306382928
696306382935
696306382942
696306382959
696306382966
696306382973
696306382980
696306382997
696306383000
696306383017
696306383024
696306383031
696306383048
696306383055
696306383062
696306383079
696306383086
696306383093
696306383109
696306383116
696306383123
696306383130
696306383147
696306383154
696306383161
696306383178
696306383185
696306383192
696306383208
696306383215
696306383222696306383239
696306383246
696306383253
696306383260
696306383277
696306383284
696306383291
696306383307
696306383314
696306383321
696306383338
696306383345
696306383352
696306383369
696306383376
696306383383
696306383390
696306383406
696306383413
696306383420
696306383437
696306383444
696306383451
696306383468
696306383475
696306383482
696306383499
696306383505
696306383512
696306383529
696306383536
696306383543
696306383550
696306383567
696306383574
696306383581
696306383598
696306383604
696306383611
696306383628
696306383635
696306383642
696306383659
696306383666
696306383673
696306383680
696306383697
696306383703
696306383710
696306383727696306383734
696306383741
696306383758
696306383765
696306383772
696306383789
696306383796
696306383802
696306383819
696306383826
696306383833
696306383840
696306383857
696306383864
696306383871
696306383888
696306383895
696306383901
696306383918
696306383925
696306383932
696306383949
696306383956
696306383963
696306383970
696306383987
696306383994
696306384007
696306384014
696306384021
696306384038
696306384045
696306384052
696306384069
696306384076
696306384083
696306384090
696306384106
696306384113
696306384120
696306384137
696306384144
696306384151
696306384168
696306384175
696306384182
696306384199
696306384205
696306384212
696306384229696306384236
696306384243
696306384250
696306384267
696306384274
696306384281
696306384298
696306384304
696306384311
696306384328
696306384335
696306384342
696306384359
696306384366
696306384373
696306384380
696306384397
696306384403
696306384410
696306384427
696306384434
696306384441
696306384458
696306384465
696306384472
696306384489
696306384496
696306384502
696306384519
696306384526
696306384533
696306384540
696306384557
696306384564
696306384571
696306384588
696306384595
696306384601
696306384618
696306384625
696306384632
696306384649
696306384656
696306384663
696306384670
696306384687
696306384694
696306384700
696306384717
696306384724696306384731
696306384748
696306384755
696306384762
696306384779
696306384786
696306384793
696306384809
696306384816
696306384823
696306384830
696306384847
696306384854
696306384861
696306384878
696306384885
696306384892
696306384908
696306384915
696306384922
696306384939
696306384946
696306384953
696306384960
696306384977
696306384984
696306384991
696306385004
696306385011
696306385028
696306385035
696306385042
696306385059
696306385066
696306385073
696306385080
696306385097
696306385103
696306385110
696306385127
696306385134
696306385141
696306385158
696306385165
696306385172
696306385189
696306385196
696306385202
696306385219
696306385226696306385233
696306385240
696306385257
696306385264
696306385271
696306385288
696306385295
696306385301
696306385318
696306385325
696306385332
696306385349
696306385356
696306385363
696306385370
696306385387
696306385394
696306385400
696306385417
696306385424
696306385431
696306385448
696306385455
696306385462
696306385479
696306385486
696306385493
696306385509
696306385516
696306385523
696306385530
696306385547
696306385554
696306385561
696306385578
696306385585
696306385592
696306385608
696306385615
696306385622
696306385639
696306385646
696306385653
696306385660
696306385677
696306385684
696306385691
696306385707
696306385714
696306385721696306385738
696306385745
696306385752
696306385769
696306385776
696306385783
696306385790
696306385806
696306385813
696306385820
696306385837
696306385844
696306385851
696306385868
696306385875
696306385882
696306385899
696306385905
696306385912
696306385929
696306385936
696306385943
696306385950
696306385967
696306385974
696306385981
696306385998
696306386001
696306386018
696306386025
696306386032
696306386049
696306386056
696306386063
696306386070
696306386087
696306386094
696306386100
696306386117
696306386124
696306386131
696306386148
696306386155
696306386162
696306386179
696306386186
696306386193
696306386209
696306386216
696306386223696306386230
696306386247
696306386254
696306386261
696306386278
696306386285
696306386292
696306386308
696306386315
696306386322
696306386339
696306386346
696306386353
696306386360
696306386377
696306386384
696306386391
696306386407
696306386414
696306386421
696306386438
696306386445
696306386452
696306386469
696306386476
696306386483
696306386490
696306386506
696306386513
696306386520
696306386537
696306386544
696306386551
696306386568
696306386575
696306386582
696306386599
696306386605
696306386612
696306386629
696306386636
696306386643
696306386650
696306386667
696306386674
696306386681
696306386698
696306386704
696306386711
696306386728696306386735
696306386742
696306386759
696306386766
696306386773
696306386780
696306386797
696306386803
696306386810
696306386827
696306386834
696306386841
696306386858
696306386865
696306386872
696306386889
696306386896
696306386902
696306386919
696306386926
696306386933
696306386940
696306386957
696306386964
696306386971
696306386988
696306386995
696306387008
696306387015
696306387022
696306387039
696306387046
696306387053
696306387060
696306387077
696306387084
696306387091
696306387107
696306387114
696306387121
696306387138
696306387145
696306387152
696306387169
696306387176
696306387183
696306387190
696306387206
696306387213
696306387220696306387237
696306387244
696306387251
696306387268
696306387275
696306387282
696306387299
696306387305
696306387312
696306387329
696306387336
696306387343
696306387350
696306387367
696306387374
696306387381
696306387398
696306387404
696306387411
696306387428
696306387435
696306387442
696306387459
696306387466
696306387473
696306387480
696306387497
696306387503
696306387510
696306387527
696306387534
696306387541
696306387558
696306387565
696306387572
696306387589
696306387596
696306387602
696306387619
696306387626
696306387633
696306387640
696306387657
696306387664
696306387671
696306387688
696306387695
696306387701
696306387718
696306387725696306387732
696306387749
696306387756
696306387763
696306387770
696306387787
696306387794
696306387800
696306387817
696306387824
696306387831
696306387848
696306387855
696306387862
696306387879
696306387886
696306387893
696306387909
696306387916
696306387923
696306387930
696306387947
696306387954
696306387961
696306387978
696306387985
696306387992
696306388005
696306388012
696306388029
696306388036
696306388043
696306388050
696306388067
696306388074
696306388081
696306388098
696306388104
696306388111
696306388128
696306388135
696306388142
696306388159
696306388166
696306388173
696306388180
696306388197
696306388203
696306388210
696306388227696306388234
696306388241
696306388258
696306388265
696306388272
696306388289
696306388296
696306388302
696306388319
696306388326
696306388333
696306388340
696306388357
696306388364
696306388371
696306388388
696306388395
696306388401
696306388418
696306388425
696306388432
696306388449
696306388456
696306388463
696306388470
696306388487
696306388494
696306388500
696306388517
696306388524
696306388531
696306388548
696306388555
696306388562
696306388579
696306388586
696306388593
696306388609
696306388616
696306388623
696306388630
696306388647
696306388654
696306388661
696306388678
696306388685
696306388692
696306388708
696306388715
696306388722696306388739
696306388746
696306388753
696306388760
696306388777
696306388784
696306388791
696306388807
696306388814
696306388821
696306388838
696306388845
696306388852
696306388869
696306388876
696306388883
696306388890
696306388906
696306388913
696306388920
696306388937
696306388944
696306388951
696306388968
696306388975
696306388982
696306388999
696306389002
696306389019
696306389026
696306389033
696306389040
696306389057
696306389064
696306389071
696306389088
696306389095
696306389101
696306389118
696306389125
696306389132
696306389149
696306389156
696306389163
696306389170
696306389187
696306389194
696306389200
696306389217
696306389224696306389231
696306389248
696306389255
696306389262
696306389279
696306389286
696306389293
696306389309
696306389316
696306389323
696306389330
696306389347
696306389354
696306389361
696306389378
696306389385
696306389392
696306389408
696306389415
696306389422
696306389439
696306389446
696306389453
696306389460
696306389477
696306389484
696306389491
696306389507
696306389514
696306389521
696306389538
696306389545
696306389552
696306389569
696306389576
696306389583
696306389590
696306389606
696306389613
696306389620
696306389637
696306389644
696306389651
696306389668
696306389675
696306389682
696306389699
696306389705
696306389712
696306389729696306389736
696306389743
696306389750
696306389767
696306389774
696306389781
696306389798
696306389804
696306389811
696306389828
696306389835
696306389842
696306389859
696306389866
696306389873
696306389880
696306389897
696306389903
696306389910
696306389927
696306389934
696306389941
696306389958
696306389965
696306389972
696306389989
696306389996
696306390008
696306390015
696306390022
696306390039
696306390046
696306390053
696306390060
696306390077
696306390084
696306390091
696306390107
696306390114
696306390121
696306390138
696306390145
696306390152
696306390169
696306390176
696306390183
696306390190
696306390206
696306390213
696306390220696306390237
696306390244
696306390251
696306390268
696306390275
696306390282
696306390299
696306390305
696306390312
696306390329
696306390336
696306390343
696306390350
696306390367
696306390374
696306390381
696306390398
696306390404
696306390411
696306390428
696306390435
696306390442
696306390459
696306390466
696306390473
696306390480
696306390497
696306390503
696306390510
696306390527
696306390534
696306390541
696306390558
696306390565
696306390572
696306390589
696306390596
696306390602
696306390619
696306390626
696306390633
696306390640
696306390657
696306390664
696306390671
696306390688
696306390695
696306390701
696306390718
696306390725696306390732
696306390749
696306390756
696306390763
696306390770
696306390787
696306390794
696306390800
696306390817
696306390824
696306390831
696306390848
696306390855
696306390862
696306390879
696306390886
696306390893
696306390909
696306390916
696306390923
696306390930
696306390947
696306390954
696306390961
696306390978
696306390985
696306390992
696306391005
696306391012
696306391029
696306391036
696306391043
696306391050
696306391067
696306391074
696306391081
696306391098
696306391104
696306391111
696306391128
696306391135
696306391142
696306391159
696306391166
696306391173
696306391180
696306391197
696306391203
696306391210
696306391227696306391234
696306391241
696306391258
696306391265
696306391272
696306391289
696306391296
696306391302
696306391319
696306391326
696306391333
696306391340
696306391357
696306391364
696306391371
696306391388
696306391395
696306391401
696306391418
696306391425
696306391432
696306391449
696306391456
696306391463
696306391470
696306391487
696306391494
696306391500
696306391517
696306391524
696306391531
696306391548
696306391555
696306391562
696306391579
696306391586
696306391593
696306391609
696306391616
696306391623
696306391630
696306391647
696306391654
696306391661
696306391678
696306391685
696306391692
696306391708
696306391715
696306391722696306391739
696306391746
696306391753
696306391760
696306391777
696306391784
696306391791
696306391807
696306391814
696306391821
696306391838
696306391845
696306391852
696306391869
696306391876
696306391883
696306391890
696306391906
696306391913
696306391920
696306391937
696306391944
696306391951
696306391968
696306391975
696306391982
696306391999
696306392002
696306392019
696306392026
696306392033
696306392040
696306392057
696306392064
696306392071
696306392088
696306392095
696306392101
696306392118
696306392125
696306392132
696306392149
696306392156
696306392163
696306392170
696306392187
696306392194
696306392200
696306392217
696306392224696306392231
696306392248
696306392255
696306392262
696306392279
696306392286
696306392293
696306392309
696306392316
696306392323
696306392330
696306392347
696306392354
696306392361
696306392378
696306392385
696306392392
696306392408
696306392415
696306392422
696306392439
696306392446
696306392453
696306392460
696306392477
696306392484
696306392491
696306392507
696306392514
696306392521
696306392538
696306392545
696306392552
696306392569
696306392576
696306392583
696306392590
696306392606
696306392613
696306392620
696306392637
696306392644
696306392651
696306392668
696306392675
696306392682
696306392699
696306392705
696306392712
696306392729696306392736
696306392743
696306392750
696306392767
696306392774
696306392781
696306392798
696306392804
696306392811
696306392828
696306392835
696306392842
696306392859
696306392866
696306392873
696306392880
696306392897
696306392903
696306392910
696306392927
696306392934
696306392941
696306392958
696306392965
696306392972
696306392989
696306392996
696306393009
696306393016
696306393023
696306393030
696306393047
696306393054
696306393061
696306393078
696306393085
696306393092
696306393108
696306393115
696306393122
696306393139
696306393146
696306393153
696306393160
696306393177
696306393184
696306393191
696306393207
696306393214
696306393221696306393238
696306393245
696306393252
696306393269
696306393276
696306393283
696306393290
696306393306
696306393313
696306393320
696306393337
696306393344
696306393351
696306393368
696306393375
696306393382
696306393399
696306393405
696306393412
696306393429
696306393436
696306393443
696306393450
696306393467
696306393474
696306393481
696306393498
696306393504
696306393511
696306393528
696306393535
696306393542
696306393559
696306393566
696306393573
696306393580
696306393597
696306393603
696306393610
696306393627
696306393634
696306393641
696306393658
696306393665
696306393672
696306393689
696306393696
696306393702
696306393719
696306393726696306393733
696306393740
696306393757
696306393764
696306393771
696306393788
696306393795
696306393801
696306393818
696306393825
696306393832
696306393849
696306393856
696306393863
696306393870
696306393887
696306393894
696306393900
696306393917
696306393924
696306393931
696306393948
696306393955
696306393962
696306393979
696306393986
696306393993
696306394006
696306394013
696306394020
696306394037
696306394044
696306394051
696306394068
696306394075
696306394082
696306394099
696306394105
696306394112
696306394129
696306394136
696306394143
696306394150
696306394167
696306394174
696306394181
696306394198
696306394204
696306394211
696306394228696306394235
696306394242
696306394259
696306394266
696306394273
696306394280
696306394297
696306394303
696306394310
696306394327
696306394334
696306394341
696306394358
696306394365
696306394372
696306394389
696306394396
696306394402
696306394419
696306394426
696306394433
696306394440
696306394457
696306394464
696306394471
696306394488
696306394495
696306394501
696306394518
696306394525
696306394532
696306394549
696306394556
696306394563
696306394570
696306394587
696306394594
696306394600
696306394617
696306394624
696306394631
696306394648
696306394655
696306394662
696306394679
696306394686
696306394693
696306394709
696306394716
696306394723696306394730
696306394747
696306394754
696306394761
696306394778
696306394785
696306394792
696306394808
696306394815
696306394822
696306394839
696306394846
696306394853
696306394860
696306394877
696306394884
696306394891
696306394907
696306394914
696306394921
696306394938
696306394945
696306394952
696306394969
696306394976
696306394983
696306394990
696306395003
696306395010
696306395027
696306395034
696306395041
696306395058
696306395065
696306395072
696306395089
696306395096
696306395102
696306395119
696306395126
696306395133
696306395140
696306395157
696306395164
696306395171
696306395188
696306395195
696306395201
696306395218
696306395225696306395232
696306395249
696306395256
696306395263
696306395270
696306395287
696306395294
696306395300
696306395317
696306395324
696306395331
696306395348
696306395355
696306395362
696306395379
696306395386
696306395393
696306395409
696306395416
696306395423
696306395430
696306395447
696306395454
696306395461
696306395478
696306395485
696306395492
696306395508
696306395515
696306395522
696306395539
696306395546
696306395553
696306395560
696306395577
696306395584
696306395591
696306395607
696306395614
696306395621
696306395638
696306395645
696306395652
696306395669
696306395676
696306395683
696306395690
696306395706
696306395713
696306395720696306395737
696306395744
696306395751
696306395768
696306395775
696306395782
696306395799
696306395805
696306395812
696306395829
696306395836
696306395843
696306395850
696306395867
696306395874
696306395881
696306395898
696306395904
696306395911
696306395928
696306395935
696306395942
696306395959
696306395966
696306395973
696306395980
696306395997
696306396000
696306396017
696306396024
696306396031
696306396048
696306396055
696306396062
696306396079
696306396086
696306396093
696306396109
696306396116
696306396123
696306396130
696306396147
696306396154
696306396161
696306396178
696306396185
696306396192
696306396208
696306396215
696306396222696306396239
696306396246
696306396253
696306396260
696306396277
696306396284
696306396291
696306396307
696306396314
696306396321
696306396338
696306396345
696306396352
696306396369
696306396376
696306396383
696306396390
696306396406
696306396413
696306396420
696306396437
696306396444
696306396451
696306396468
696306396475
696306396482
696306396499
696306396505
696306396512
696306396529
696306396536
696306396543
696306396550
696306396567
696306396574
696306396581
696306396598
696306396604
696306396611
696306396628
696306396635
696306396642
696306396659
696306396666
696306396673
696306396680
696306396697
696306396703
696306396710
696306396727696306396734
696306396741
696306396758
696306396765
696306396772
696306396789
696306396796
696306396802
696306396819
696306396826
696306396833
696306396840
696306396857
696306396864
696306396871
696306396888
696306396895
696306396901
696306396918
696306396925
696306396932
696306396949
696306396956
696306396963
696306396970
696306396987
696306396994
696306397007
696306397014
696306397021
696306397038
696306397045
696306397052
696306397069
696306397076
696306397083
696306397090
696306397106
696306397113
696306397120
696306397137
696306397144
696306397151
696306397168
696306397175
696306397182
696306397199
696306397205
696306397212
696306397229696306397236
696306397243
696306397250
696306397267
696306397274
696306397281
696306397298
696306397304
696306397311
696306397328
696306397335
696306397342
696306397359
696306397366
696306397373
696306397380
696306397397
696306397403
696306397410
696306397427
696306397434
696306397441
696306397458
696306397465
696306397472
696306397489
696306397496
696306397502
696306397519
696306397526
696306397533
696306397540
696306397557
696306397564
696306397571
696306397588
696306397595
696306397601
696306397618
696306397625
696306397632
696306397649
696306397656
696306397663
696306397670
696306397687
696306397694
696306397700
696306397717
696306397724